…
### 4.5.4 Where

Now that we’ve explored the “who?”, “what?”, and “when?” questions about
our data set, let’s finish off our EDA by understanding the “where?”
question. Let’s check what districts we have in the data. We can do this
using `distinct()` again.

``` r
us_sent %>%
  distinct(district)
```

    ## # A tibble: 93 × 1
    ##    district        
    ##    <chr>           
    ##  1 Dist of Columbia
    ##  2 Maine           
    ##  3 Massachusetts   
    ##  4 New Hampshire   
    ##  5 Puerto Rico     
    ##  6 Rhode Island    
    ##  7 Connecticut     
    ##  8 New York East   
    ##  9 New York North  
    ## 10 New York South  
    ## # ℹ 83 more rows
…
