Sentencing Exploratory Data Analysis
…
Who

What

When

Where

Let’s check what districts we have in the data. We can do this using
distinct(district)

us_sent %>%
  distinct(district)

## # A tibble: 93 × 1
##    district        
##    <chr>           
##  1 Dist of Columbia
##  2 Maine           
##  3 Massachusetts   
##  4 New Hampshire   
##  5 Puerto Rico     
##  6 Rhode Island    
##  7 Connecticut     
##  8 New York East   
##  9 New York North  
## 10 New York South  
## # ℹ 83 more rows
…
